EESchema Schematic File Version 4
EELAYER 30 0
EELAYER END
$Descr A4 11693 8268
encoding utf-8
Sheet 1 1
Title "AMP-DR GainCtrl"
Date "2021-12-27"
Rev "1.0"
Comp "T5! DIY Audio"
Comment1 "HttPS://t-5.eu/hp/AMP-DR"
Comment2 ""
Comment3 ""
Comment4 ""
$EndDescr
$Comp
L Mechanical:MountingHole H102
U 1 1 5EC33382
P 1050 6750
F 0 "H102" H 1150 6796 50  0000 L CNN
F 1 "MountingHole" H 1150 6705 50  0000 L CNN
F 2 "MountingHole:MountingHole_3.2mm_M3" H 1050 6750 50  0001 C CNN
F 3 "~" H 1050 6750 50  0001 C CNN
	1    1050 6750
	1    0    0    -1  
$EndComp
$Comp
L t-5:T5 e101
U 1 1 5EC33CB4
P 1350 6450
F 0 "e101" H 1350 6550 50  0001 C CNN
F 1 "T5" H 1350 6450 50  0001 C CNN
F 2 "T5_w11:T5_w11" H 1350 6450 50  0001 C CNN
F 3 "" H 1350 6450 50  0001 C CNN
	1    1350 6450
	1    0    0    -1  
$EndComp
$Comp
L Mechanical:MountingHole H104
U 1 1 6007BA0F
P 1050 6950
F 0 "H104" H 1150 6996 50  0000 L CNN
F 1 "MountingHole" H 1150 6905 50  0000 L CNN
F 2 "MountingHole:MountingHole_3.2mm_M3" H 1050 6950 50  0001 C CNN
F 3 "~" H 1050 6950 50  0001 C CNN
	1    1050 6950
	1    0    0    -1  
$EndComp
$Comp
L Device:R R107
U 1 1 61C1E9B7
P 7600 3450
F 0 "R107" V 7393 3450 50  0000 C CNN
F 1 "681" V 7484 3450 50  0000 C CNN
F 2 "Resistor_SMD:R_1206_3216Metric" V 7530 3450 50  0001 C CNN
F 3 "~" H 7600 3450 50  0001 C CNN
	1    7600 3450
	0    1    1    0   
$EndComp
$Comp
L Device:R R108
U 1 1 61C22877
P 7600 3800
F 0 "R108" V 7393 3800 50  0000 C CNN
F 1 "499" V 7484 3800 50  0000 C CNN
F 2 "Resistor_SMD:R_1206_3216Metric" V 7530 3800 50  0001 C CNN
F 3 "~" H 7600 3800 50  0001 C CNN
	1    7600 3800
	0    1    1    0   
$EndComp
$Comp
L Device:R R109
U 1 1 61C22E97
P 7600 4150
F 0 "R109" V 7393 4150 50  0000 C CNN
F 1 "374" V 7484 4150 50  0000 C CNN
F 2 "Resistor_SMD:R_1206_3216Metric" V 7530 4150 50  0001 C CNN
F 3 "~" H 7600 4150 50  0001 C CNN
	1    7600 4150
	0    1    1    0   
$EndComp
$Comp
L Device:R R110
U 1 1 61C23007
P 7600 4500
F 0 "R110" V 7393 4500 50  0000 C CNN
F 1 "287" V 7484 4500 50  0000 C CNN
F 2 "Resistor_SMD:R_1206_3216Metric" V 7530 4500 50  0001 C CNN
F 3 "~" H 7600 4500 50  0001 C CNN
	1    7600 4500
	0    1    1    0   
$EndComp
$Comp
L Device:R R111
U 1 1 61C23183
P 7600 4850
F 0 "R111" V 7393 4850 50  0000 C CNN
F 1 "221" V 7484 4850 50  0000 C CNN
F 2 "Resistor_SMD:R_1206_3216Metric" V 7530 4850 50  0001 C CNN
F 3 "~" H 7600 4850 50  0001 C CNN
	1    7600 4850
	0    1    1    0   
$EndComp
$Comp
L Device:R R112
U 1 1 61C2330B
P 7600 5200
F 0 "R112" V 7393 5200 50  0000 C CNN
F 1 "174" V 7484 5200 50  0000 C CNN
F 2 "Resistor_SMD:R_1206_3216Metric" V 7530 5200 50  0001 C CNN
F 3 "~" H 7600 5200 50  0001 C CNN
	1    7600 5200
	0    1    1    0   
$EndComp
$Comp
L Device:R R101
U 1 1 61C23E11
P 7600 1350
F 0 "R101" V 7393 1350 50  0000 C CNN
F 1 "200k" V 7484 1350 50  0000 C CNN
F 2 "Resistor_SMD:R_1206_3216Metric" V 7530 1350 50  0001 C CNN
F 3 "~" H 7600 1350 50  0001 C CNN
	1    7600 1350
	0    1    1    0   
$EndComp
$Comp
L Device:R R102
U 1 1 61C23EE1
P 7600 1700
F 0 "R102" V 7393 1700 50  0000 C CNN
F 1 "8k06" V 7484 1700 50  0000 C CNN
F 2 "Resistor_SMD:R_1206_3216Metric" V 7530 1700 50  0001 C CNN
F 3 "~" H 7600 1700 50  0001 C CNN
	1    7600 1700
	0    1    1    0   
$EndComp
$Comp
L Device:R R103
U 1 1 61C23EEB
P 7600 2050
F 0 "R103" V 7393 2050 50  0000 C CNN
F 1 "3k48" V 7484 2050 50  0000 C CNN
F 2 "Resistor_SMD:R_1206_3216Metric" V 7530 2050 50  0001 C CNN
F 3 "~" H 7600 2050 50  0001 C CNN
	1    7600 2050
	0    1    1    0   
$EndComp
$Comp
L Device:R R104
U 1 1 61C23EF5
P 7600 2400
F 0 "R104" V 7393 2400 50  0000 C CNN
F 1 "2k05" V 7484 2400 50  0000 C CNN
F 2 "Resistor_SMD:R_1206_3216Metric" V 7530 2400 50  0001 C CNN
F 3 "~" H 7600 2400 50  0001 C CNN
	1    7600 2400
	0    1    1    0   
$EndComp
$Comp
L Device:R R105
U 1 1 61C23EFF
P 7600 2750
F 0 "R105" V 7393 2750 50  0000 C CNN
F 1 "1k33" V 7484 2750 50  0000 C CNN
F 2 "Resistor_SMD:R_1206_3216Metric" V 7530 2750 50  0001 C CNN
F 3 "~" H 7600 2750 50  0001 C CNN
	1    7600 2750
	0    1    1    0   
$EndComp
$Comp
L Device:R R106
U 1 1 61C23F09
P 7600 3100
F 0 "R106" V 7393 3100 50  0000 C CNN
F 1 "931" V 7484 3100 50  0000 C CNN
F 2 "Resistor_SMD:R_1206_3216Metric" V 7530 3100 50  0001 C CNN
F 3 "~" H 7600 3100 50  0001 C CNN
	1    7600 3100
	0    1    1    0   
$EndComp
Wire Wire Line
	6800 2750 7000 2750
Wire Wire Line
	7000 2750 7000 1700
Wire Wire Line
	7000 1700 7450 1700
Wire Wire Line
	6800 2850 7100 2850
Wire Wire Line
	7100 2850 7100 2050
Wire Wire Line
	7100 2050 7450 2050
Wire Wire Line
	6800 2950 7200 2950
Wire Wire Line
	7200 2950 7200 2400
Wire Wire Line
	7200 2400 7450 2400
Wire Wire Line
	6800 3050 7300 3050
Wire Wire Line
	7300 3050 7300 2750
Wire Wire Line
	7300 2750 7450 2750
Wire Wire Line
	6800 3150 7400 3150
Wire Wire Line
	7400 3150 7400 3100
Wire Wire Line
	7400 3100 7450 3100
Wire Wire Line
	6800 3350 7400 3350
Wire Wire Line
	7400 3350 7400 3450
Wire Wire Line
	7400 3450 7450 3450
Wire Wire Line
	7450 3800 7300 3800
Wire Wire Line
	7300 3800 7300 3450
Wire Wire Line
	7300 3450 6800 3450
Wire Wire Line
	6800 3550 7200 3550
Wire Wire Line
	7200 3550 7200 4150
Wire Wire Line
	7200 4150 7450 4150
Wire Wire Line
	7100 4500 7100 3650
Wire Wire Line
	7100 3650 6800 3650
Wire Wire Line
	6800 3750 7000 3750
Wire Wire Line
	7000 3750 7000 4850
Wire Wire Line
	7000 4850 7450 4850
Wire Wire Line
	7750 1350 7850 1350
Wire Wire Line
	7850 1350 7850 1700
Wire Wire Line
	7850 5200 7750 5200
Wire Wire Line
	7750 4850 7850 4850
Connection ~ 7850 4850
Wire Wire Line
	7850 4850 7850 5200
Wire Wire Line
	7850 4500 7750 4500
Connection ~ 7850 4500
Wire Wire Line
	7850 4500 7850 4850
Wire Wire Line
	7100 4500 7450 4500
Wire Wire Line
	7750 4150 7850 4150
Connection ~ 7850 4150
Wire Wire Line
	7850 4150 7850 4500
Wire Wire Line
	7750 3800 7850 3800
Connection ~ 7850 3800
Wire Wire Line
	7850 3800 7850 4150
Wire Wire Line
	7750 3450 7850 3450
Connection ~ 7850 3450
Wire Wire Line
	7850 3450 7850 3800
Wire Wire Line
	7750 3100 7850 3100
Connection ~ 7850 3100
Wire Wire Line
	7750 2750 7850 2750
Connection ~ 7850 2750
Wire Wire Line
	7850 2750 7850 3100
Wire Wire Line
	7750 2400 7850 2400
Connection ~ 7850 2400
Wire Wire Line
	7850 2400 7850 2750
Wire Wire Line
	7750 2050 7850 2050
Connection ~ 7850 2050
Wire Wire Line
	7850 2050 7850 2400
Wire Wire Line
	7750 1700 7850 1700
Connection ~ 7850 1700
Wire Wire Line
	7850 1700 7850 2050
Wire Wire Line
	6900 5200 7450 5200
Wire Wire Line
	6800 3850 6900 3850
Wire Wire Line
	6900 3850 6900 5200
Wire Wire Line
	5500 1350 5500 3250
Wire Wire Line
	5500 1350 7450 1350
Connection ~ 5500 3250
Wire Wire Line
	5500 3250 5800 3250
NoConn ~ 6800 2650
$Comp
L Mechanical:MountingHole_Pad H101
U 1 1 61C8C532
P 1050 7200
F 0 "H101" H 1150 7249 50  0000 L CNN
F 1 "MountingHole_Pad" H 1150 7158 50  0000 L CNN
F 2 "MountingHole:MountingHole_3.2mm_M3_DIN965_Pad_TopBottom" H 1050 7200 50  0001 C CNN
F 3 "~" H 1050 7200 50  0001 C CNN
	1    1050 7200
	1    0    0    -1  
$EndComp
$Comp
L t-5:SW_Rotary12 SW101
U 1 1 61C927C2
P 6400 3250
F 0 "SW101" H 6300 4031 50  0000 C CNN
F 1 "SW_Rotary12" H 6300 3940 50  0000 C CNN
F 2 "T5_w11:BTNR100H" H 6200 3950 50  0001 C CNN
F 3 "http://cdn-reichelt.de/documents/datenblatt/C200/DS-Serie%23LOR.pdf" H 6200 3950 50  0001 C CNN
	1    6400 3250
	1    0    0    -1  
$EndComp
$Comp
L power:GND #PWR0101
U 1 1 61C946AC
P 5700 4150
F 0 "#PWR0101" H 5700 3900 50  0001 C CNN
F 1 "GND" H 5705 3977 50  0000 C CNN
F 2 "" H 5700 4150 50  0001 C CNN
F 3 "" H 5700 4150 50  0001 C CNN
	1    5700 4150
	1    0    0    -1  
$EndComp
Wire Wire Line
	5700 4150 5700 4050
Wire Wire Line
	5700 4050 5800 4050
$Comp
L power:GND #PWR0102
U 1 1 61C964AA
P 1050 7400
F 0 "#PWR0102" H 1050 7150 50  0001 C CNN
F 1 "GND" H 1055 7227 50  0000 C CNN
F 2 "" H 1050 7400 50  0001 C CNN
F 3 "" H 1050 7400 50  0001 C CNN
	1    1050 7400
	1    0    0    -1  
$EndComp
Wire Wire Line
	1050 7400 1050 7300
Wire Wire Line
	7850 3100 7850 3450
$Comp
L Connector_Generic:Conn_02x03_Odd_Even J101
U 1 1 61D7002B
P 6450 5850
F 0 "J101" V 6546 5662 50  0000 R CNN
F 1 "Conn_02x03_Odd_Even" V 6455 5662 50  0000 R CNN
F 2 "T5_w11:PinHeader_female_2x03_P2.54mm_Vertical" H 6450 5850 50  0001 C CNN
F 3 "~" H 6450 5850 50  0001 C CNN
	1    6450 5850
	0    -1   -1   0   
$EndComp
Wire Wire Line
	6350 5550 6350 5450
Wire Wire Line
	6350 5450 5500 5450
Wire Wire Line
	5500 5450 5500 3250
Wire Wire Line
	6550 5550 6550 5450
Wire Wire Line
	6550 5450 7850 5450
Wire Wire Line
	7850 5450 7850 5200
Connection ~ 7850 5200
NoConn ~ 6450 5550
NoConn ~ 6450 6050
NoConn ~ 6550 6050
NoConn ~ 6350 6050
$EndSCHEMATC
